%YAML 1.1
%TAG !u! tag:unity3d.com,2011:
--- !u!114 &11400000
MonoBehaviour:
  m_ObjectHideFlags: 0
  m_PrefabParentObject: {fileID: 0}
  m_PrefabInternal: {fileID: 0}
  m_GameObject: {fileID: 0}
  m_Enabled: 1
  m_EditorHideFlags: 0
  m_Script: {fileID: 11500000, guid: 8bd36edbcb996a4499576771b7589dcc, type: 3}
  m_Name: 10
  m_EditorClassIdentifier: 
  icon: {fileID: 21300020, guid: 6445f114531a0c6499f2a07d42526267, type: 3}
  bwIcon: {fileID: 21300020, guid: 87d960d153ccd5d42bc0830f6995783c, type: 3}
  achievmentName: "Arrestado por la Rulys\xEDa"
  description: "Has confesado tus fechor\xEDas y ahora duermes en el calabozo. Pero
    tienes la conciencia limp\xEDsima"
  achieved: 0
