%YAML 1.1
%TAG !u! tag:unity3d.com,2011:
--- !u!114 &11400000
MonoBehaviour:
  m_ObjectHideFlags: 0
  m_PrefabParentObject: {fileID: 0}
  m_PrefabInternal: {fileID: 0}
  m_GameObject: {fileID: 0}
  m_Enabled: 1
  m_EditorHideFlags: 0
  m_Script: {fileID: 11500000, guid: 8bd36edbcb996a4499576771b7589dcc, type: 3}
  m_Name: 25
  m_EditorClassIdentifier: 
  icon: {fileID: 21300050, guid: 6445f114531a0c6499f2a07d42526267, type: 3}
  bwIcon: {fileID: 21300050, guid: 87d960d153ccd5d42bc0830f6995783c, type: 3}
  achievmentName: Potencia dedil
  description: Has superado todos los minijuegos de clicker. Ahora puedes mover el
    mundo con ese pedazo de dedo que has ejercitado
  achieved: 0
