%YAML 1.1
%TAG !u! tag:unity3d.com,2011:
--- !u!114 &11400000
MonoBehaviour:
  m_ObjectHideFlags: 0
  m_PrefabParentObject: {fileID: 0}
  m_PrefabInternal: {fileID: 0}
  m_GameObject: {fileID: 0}
  m_Enabled: 1
  m_EditorHideFlags: 0
  m_Script: {fileID: 11500000, guid: b860bcdcb1252bb49a88186de0a28b6b, type: 3}
  m_Name: Avance1
  m_EditorClassIdentifier: 
  id: Avance1
  text: "Ahora que has llegado a tu primer destino, veamos si eres digno de entrar.
    \xBFQuieres aceptar nuestra primera misi\xF3n?"
  textOption1: Si
  option1: {fileID: 11400000, guid: aadd79d5526552c4a91b944b8128f173, type: 2}
  textOption2: No
  option2: {fileID: 11400000, guid: 1e91c2c78cf8c8949bae328df3db3c12, type: 2}
  isNPCEvent: 1
  image: {fileID: 21300000, guid: 42d9e908832afea4f863f86241b7bb35, type: 3}
  distance: 0.25
  activeImage: Image
