%YAML 1.1
%TAG !u! tag:unity3d.com,2011:
--- !u!114 &11400000
MonoBehaviour:
  m_ObjectHideFlags: 0
  m_PrefabParentObject: {fileID: 0}
  m_PrefabInternal: {fileID: 0}
  m_GameObject: {fileID: 0}
  m_Enabled: 1
  m_EditorHideFlags: 0
  m_Script: {fileID: 11500000, guid: dbba9fa465c56e840a7a8e8ea69c22b4, type: 3}
  m_Name: Evento1
  m_EditorClassIdentifier: 
  id: 1
  text: "\xA1Hola querido subdito! \xBFQuieres unirte a mi secta?"
  textOption1: Si
  option1: {fileID: 11400000, guid: c34de80ad6b7e674fbac17d8a57148f7, type: 2}
  textOption2: No
  option2: {fileID: 11400000, guid: 1e91c2c78cf8c8949bae328df3db3c12, type: 2}
  isNPCEvent: 1
  image: {fileID: 21300000, guid: 42d9e908832afea4f863f86241b7bb35, type: 3}
