%YAML 1.1
%TAG !u! tag:unity3d.com,2011:
--- !u!114 &11400000
MonoBehaviour:
  m_ObjectHideFlags: 0
  m_PrefabParentObject: {fileID: 0}
  m_PrefabInternal: {fileID: 0}
  m_GameObject: {fileID: 0}
  m_Enabled: 1
  m_EditorHideFlags: 0
  m_Script: {fileID: 11500000, guid: f8378e5aa2ad24343901a0eb37792c6f, type: 3}
  m_Name: GameOver1
  m_EditorClassIdentifier: 
  id: 1
  text: Eres un soso te has perdido grandes placeres de este y otros mundos
  textOption1: Al carrer!!
  option1: {fileID: 0}
  textOption2: 
  option2: {fileID: 0}
  isNPCEvent: 0
  image: {fileID: 21300000, guid: 47ddbc90de2c66541a7a42bedfb3da77, type: 3}
  nameScene: GameOver
  angelEvent: {fileID: 0}
