%YAML 1.1
%TAG !u! tag:unity3d.com,2011:
--- !u!114 &11400000
MonoBehaviour:
  m_ObjectHideFlags: 0
  m_PrefabParentObject: {fileID: 0}
  m_PrefabInternal: {fileID: 0}
  m_GameObject: {fileID: 0}
  m_Enabled: 1
  m_EditorHideFlags: 0
  m_Script: {fileID: 11500000, guid: 14f6c7f60b2cf274a8b33acb8410ba66, type: 3}
  m_Name: Minijuego2
  m_EditorClassIdentifier: 
  id: 1
  text: 
  textOption1: 
  option1: {fileID: 11400000, guid: fc2a967cf97e270479047a9701bad338, type: 2}
  textOption2: 
  option2: {fileID: 11400000, guid: 8d9cc5a608b8f294e9b7c4ba28e65b1b, type: 2}
  isNPCEvent: 0
  image: {fileID: 0}
  minigameScene: mini1
