%YAML 1.1
%TAG !u! tag:unity3d.com,2011:
--- !u!114 &11400000
MonoBehaviour:
  m_ObjectHideFlags: 0
  m_PrefabParentObject: {fileID: 0}
  m_PrefabInternal: {fileID: 0}
  m_GameObject: {fileID: 0}
  m_Enabled: 1
  m_EditorHideFlags: 0
  m_Script: {fileID: 11500000, guid: 354d79544aece824c8a0e699b4bcf12a, type: 3}
  m_Name: Card_0
  m_EditorClassIdentifier: 
  id: 0
  text: 
  textOption1: 
  option1: {fileID: 11400000, guid: c1ccab7d3459e5c418cd7f70121463bb, type: 2}
  textOption2: 
  option2: {fileID: 0}
  isNPCEvent: 0
  image: {fileID: 21300000, guid: 3a5899915acf5e947a605a58f3df9f19, type: 3}
  clip: {fileID: 0}
  sfxClip: {fileID: 8300000, guid: f8f2bee836b4ee34da2b9c4f9bea4a12, type: 3}
  findObjectEvent: {fileID: 0}
  duration: 2
  sfxClip: {fileID: 8300000, guid: f8f2bee836b4ee34da2b9c4f9bea4a12, type: 3}
  fadeTransition: 1
