%YAML 1.1
%TAG !u! tag:unity3d.com,2011:
--- !u!114 &11400000
MonoBehaviour:
  m_ObjectHideFlags: 0
  m_PrefabParentObject: {fileID: 0}
  m_PrefabInternal: {fileID: 0}
  m_GameObject: {fileID: 0}
  m_Enabled: 1
  m_EditorHideFlags: 0
  m_Script: {fileID: 11500000, guid: d00cf2ac736fdfb43af0cc4da06c68ef, type: 3}
  m_Name: Card_65
  m_EditorClassIdentifier: 
  id: 
  text: "\xA1Llegas por fin a L.D.! Y ni rastro del OVNI. Te presentas al casting,
    seguro de ti mismo despu\xE9s de todo lo que has vivido. Esa seguridad convence
    a los productores, que te dan el papel. Ser\xE1s una estrella y nunca olvidar\xE1s
    esta aventura.  FIN DEL JUEGO "
  textOption1: "Volver al Men\xFA Principal"
  option1: {fileID: 0}
  textOption2: 
  option2: {fileID: 0}
  isNPCEvent: 0
  image: {fileID: 21300000, guid: 5fe4fe9ea56b99747b507cf0dc96044d, type: 3}
  clip: {fileID: 0}
  sfxClip: {fileID: 0}
  findObjectEvent: {fileID: 0}
  distance: 1
  activeImage: 
  nameScene: MainMenu
  angelEvent: {fileID: 0}
