%YAML 1.1
%TAG !u! tag:unity3d.com,2011:
--- !u!114 &11400000
MonoBehaviour:
  m_ObjectHideFlags: 0
  m_PrefabParentObject: {fileID: 0}
  m_PrefabInternal: {fileID: 0}
  m_GameObject: {fileID: 0}
  m_Enabled: 1
  m_EditorHideFlags: 0
  m_Script: {fileID: 11500000, guid: b860bcdcb1252bb49a88186de0a28b6b, type: 3}
  m_Name: Card_9
  m_EditorClassIdentifier: 
  id: 
  text: "Tras muchas horas conduciendo, decides parar a descansar. Cerca de all\xED
    hay una casa, y en el tejado veis un hombre que os hace se\xF1as para que os acerqu\xE9is.
    \xBFVais a ver qu\xE9 quiere?"
  textOption1: "Os acerc\xE1is a la casa"
  option1: {fileID: 11400000, guid: 1fde2cb870c97cf4c9461700ca1e9a1a, type: 2}
  textOption2: "Ignor\xE1is al hombre"
  option2: {fileID: 11400000, guid: 21051195bf2d3f74d84351ea2e308d9f, type: 2}
  isNPCEvent: 0
  image: {fileID: 21300012, guid: 3a5899915acf5e947a605a58f3df9f19, type: 3}
  clip: {fileID: 0}
  sfxClip: {fileID: 0}
  findObjectEvent: {fileID: 0}
  distance: 0.4
  activeImage: X_10
