%YAML 1.1
%TAG !u! tag:unity3d.com,2011:
--- !u!114 &11400000
MonoBehaviour:
  m_ObjectHideFlags: 0
  m_PrefabParentObject: {fileID: 0}
  m_PrefabInternal: {fileID: 0}
  m_GameObject: {fileID: 0}
  m_Enabled: 1
  m_EditorHideFlags: 0
  m_Script: {fileID: 11500000, guid: f8378e5aa2ad24343901a0eb37792c6f, type: 3}
  m_Name: Card_53
  m_EditorClassIdentifier: 
  id: 
  text: "Esa ser\xE1 tu vestimenta a partir de este momento. Rendir\xE1s culto a los
    alien\xEDgenas, abrazar\xE1s la cultura de la logia y pasar\xE1s con ellos el
    resto de tu vida. Sin embargo, all\xED ser\xE1s muy feliz. Mucho m\xE1s que siendo
    un actor famoso.  FIN DEL JUEGO "
  textOption1: "Volver al Men\xFA Principal"
  option1: {fileID: 0}
  textOption2: 
  option2: {fileID: 0}
  isNPCEvent: 0
  image: {fileID: 21300004, guid: ff47a26b6bbe49443b9dfa94a18f23a7, type: 3}
  clip: {fileID: 0}
  sfxClip: {fileID: 0}
  findObjectEvent: {fileID: 0}
  nameScene: MainMenu
  angelEvent: {fileID: 0}
