%YAML 1.1
%TAG !u! tag:unity3d.com,2011:
--- !u!114 &11400000
MonoBehaviour:
  m_ObjectHideFlags: 0
  m_PrefabParentObject: {fileID: 0}
  m_PrefabInternal: {fileID: 0}
  m_GameObject: {fileID: 0}
  m_Enabled: 1
  m_EditorHideFlags: 0
  m_Script: {fileID: 11500000, guid: 1ece2c4668e9e7d429c029137bd87b60, type: 3}
  m_Name: Card_56
  m_EditorClassIdentifier: 
  id: 
  text: "\xA1Hola amable desconocido! Soy Mig, y...ver\xE1s...tengo un gran problema.
    Tengo que reparar el tejado de mi casa, pero tuve un accidente...y me romp\xED
    ocho dedos. S\xE9 que va a llevar un buen rato pero\u2026\xBFpodr\xEDas ayudarme?
    Por favor\u2026 "
  textOption1: Decides ayudar a Mig
  option1: {fileID: 11400000, guid: d00029ffe6beb10478cb49f8a9cfcc25, type: 2}
  textOption2: Te disculpas y sigues tu camino
  option2: {fileID: 11400000, guid: 069edf3dfef235646b7cfbda435e961b, type: 2}
  isNPCEvent: 1
  image: {fileID: 21300006, guid: 761969be3281d944e95465286904ea6b, type: 3}
  clip: {fileID: 0}
  sfxClip: {fileID: 8300000, guid: b4676e0a843aef54b91efcd4a7d977d2, type: 3}
  findObjectEvent: {fileID: 0}
