%YAML 1.1
%TAG !u! tag:unity3d.com,2011:
--- !u!114 &11400000
MonoBehaviour:
  m_ObjectHideFlags: 0
  m_PrefabParentObject: {fileID: 0}
  m_PrefabInternal: {fileID: 0}
  m_GameObject: {fileID: 0}
  m_Enabled: 1
  m_EditorHideFlags: 0
  m_Script: {fileID: 11500000, guid: b860bcdcb1252bb49a88186de0a28b6b, type: 3}
  m_Name: Card_31
  m_EditorClassIdentifier: 
  id: 
  text: "Un furg\xF3n de polic\xEDa te corta el paso. Dos agentes se acercan y te
    sacan del coche bruscamente, pidi\xE9ndote la documentaci\xF3n. Te dicen que van
    a hacerte unas cuantas preguntas \xBFqu\xE9 haces?"
  textOption1: Te muestras amable y colaboras
  option1: {fileID: 11400000, guid: 5320c473a9f8c8e4ea9fba4de520d5ad, type: 2}
  textOption2: Pones mala cara
  option2: {fileID: 11400000, guid: 5320c473a9f8c8e4ea9fba4de520d5ad, type: 2}
  isNPCEvent: 1
  image: {fileID: 21300028, guid: 761969be3281d944e95465286904ea6b, type: 3}
  clip: {fileID: 0}
  sfxClip: {fileID: 0}
  findObjectEvent: {fileID: 0}
  distance: 0.88
  activeImage: X_22
