%YAML 1.1
%TAG !u! tag:unity3d.com,2011:
--- !u!114 &11400000
MonoBehaviour:
  m_ObjectHideFlags: 0
  m_PrefabParentObject: {fileID: 0}
  m_PrefabInternal: {fileID: 0}
  m_GameObject: {fileID: 0}
  m_Enabled: 1
  m_EditorHideFlags: 0
  m_Script: {fileID: 11500000, guid: f8378e5aa2ad24343901a0eb37792c6f, type: 3}
  m_Name: Card_34
  m_EditorClassIdentifier: 
  id: 
  text: "Acabas en el calabozo. Has perdido la oportunidad de presentarte al casting,
    y nunca tendr\xE1s una oportunidad como esa. Pero siempre te quedar\xE1 el recuerdo
    de esta aventura.  FIN DEL JUEGO "
  textOption1: "Volver al Men\xFA Principal"
  option1: {fileID: 0}
  textOption2: 
  option2: {fileID: 0}
  isNPCEvent: 0
  image: {fileID: 21300000, guid: 34a594a64d7399c4fbb9c33e3136977e, type: 3}
  clip: {fileID: 0}
  sfxClip: {fileID: 0}
  findObjectEvent: {fileID: 0}
  nameScene: 
  angelEvent: {fileID: 0}
