%YAML 1.1
%TAG !u! tag:unity3d.com,2011:
--- !u!114 &11400000
MonoBehaviour:
  m_ObjectHideFlags: 0
  m_PrefabParentObject: {fileID: 0}
  m_PrefabInternal: {fileID: 0}
  m_GameObject: {fileID: 0}
  m_Enabled: 1
  m_EditorHideFlags: 0
  m_Script: {fileID: 11500000, guid: f8378e5aa2ad24343901a0eb37792c6f, type: 3}
  m_Name: Card_63
  m_EditorClassIdentifier: 
  id: 
  text: "Tras un destello cegador, te encuentras dentro del OVNI con el alien. Al
    mirar sus profundos ojos...sientes una punzada en tu coraz\xF3n, y empiezas a
    entender. Cenas con \xE9l, y resulta ser la mejor noche de tu vida. La primera
    de todas las noches de tu vida a su lado...  FIN DEL JUEGO "
  textOption1: "Volver al Men\xFA Principal"
  option1: {fileID: 0}
  textOption2: 
  option2: {fileID: 0}
  isNPCEvent: 0
  image: {fileID: 21300008, guid: 91b80a89f8a29d840ae5147f8c0bfa2c, type: 3}
  clip: {fileID: 8300000, guid: d1712af55be87bb4b83fd4b083e6e11e, type: 3}
  sfxClip: {fileID: 0}
  findObjectEvent: {fileID: 0}
  nameScene: MainMenu
  angelEvent: {fileID: 11400000, guid: aefb87aaf110c7049a56b09df7f4fe52, type: 2}
