%YAML 1.1
%TAG !u! tag:unity3d.com,2011:
--- !u!114 &11400000
MonoBehaviour:
  m_ObjectHideFlags: 0
  m_PrefabParentObject: {fileID: 0}
  m_PrefabInternal: {fileID: 0}
  m_GameObject: {fileID: 0}
  m_Enabled: 1
  m_EditorHideFlags: 0
  m_Script: {fileID: 11500000, guid: 14f6c7f60b2cf274a8b33acb8410ba66, type: 3}
  m_Name: MJ_A
  m_EditorClassIdentifier: 
  id: 
  text: 
  textOption1: 
  option1: {fileID: 11400000, guid: 0d32e57a3fa2d0247b3a194f032c5bb9, type: 2}
  textOption2: 
  option2: {fileID: 11400000, guid: 9e879fbe852653b4892f475a1ab5b64c, type: 2}
  isNPCEvent: 0
  image: {fileID: 0}
  clip: {fileID: 0}
  minigameScene: Minigame_pursuit
