%YAML 1.1
%TAG !u! tag:unity3d.com,2011:
--- !u!114 &11400000
MonoBehaviour:
  m_ObjectHideFlags: 0
  m_PrefabParentObject: {fileID: 0}
  m_PrefabInternal: {fileID: 0}
  m_GameObject: {fileID: 0}
  m_Enabled: 1
  m_EditorHideFlags: 0
  m_Script: {fileID: 11500000, guid: dbba9fa465c56e840a7a8e8ea69c22b4, type: 3}
  m_Name: MJ_D_lose
  m_EditorClassIdentifier: 
  id: 
  text: Derrotado, caes inconsciente en el suelo del bar
  textOption1: Continuar
  option1: {fileID: 11400000, guid: d37a57fb4d056c245881f21e12c73fa6, type: 2}
  textOption2: 
  option2: {fileID: 0}
  isNPCEvent: 1
  image: {fileID: 21300000, guid: 1f67debf703916f42b63c66f1bf48b0d, type: 3}
  clip: {fileID: 8300000, guid: 8a4d576f8f51767459253b43754041d2, type: 3}
  sfxClip: {fileID: 0}
  findObjectEvent: {fileID: 0}
