%YAML 1.1
%TAG !u! tag:unity3d.com,2011:
--- !u!114 &11400000
MonoBehaviour:
  m_ObjectHideFlags: 0
  m_PrefabParentObject: {fileID: 0}
  m_PrefabInternal: {fileID: 0}
  m_GameObject: {fileID: 0}
  m_Enabled: 1
  m_EditorHideFlags: 0
  m_Script: {fileID: 11500000, guid: 1ece2c4668e9e7d429c029137bd87b60, type: 3}
  m_Name: Card_10
  m_EditorClassIdentifier: 
  id: 
  text: "\xA1Hola amables desconocidos! Soy Mig, y...ver\xE9is...tengo un gran problema.
    Tengo que reparar el tejado de mi casa, pero tuve un accidente...y me romp\xED
    ocho dedos. S\xE9 que va a llevar un buen rato pero\u2026\xBFpodr\xEDais ayudarme?
    Por favor\u2026"
  textOption1: "Ayud\xE1is a Mig"
  option1: {fileID: 11400000, guid: b8f2488865efcf441881ada4496ab4e0, type: 2}
  textOption2: "Os disculp\xE1is y segu\xEDs vuestro camino"
  option2: {fileID: 11400000, guid: a60c5463ff87d7f40846bbec1a864503, type: 2}
  isNPCEvent: 1
  image: {fileID: 21300006, guid: 761969be3281d944e95465286904ea6b, type: 3}
  clip: {fileID: 0}
  sfxClip: {fileID: 8300000, guid: 3dc63d37e18403f45ac53d12453200d6, type: 3}
  findObjectEvent: {fileID: 0}
