%YAML 1.1
%TAG !u! tag:unity3d.com,2011:
--- !u!114 &11400000
MonoBehaviour:
  m_ObjectHideFlags: 0
  m_PrefabParentObject: {fileID: 0}
  m_PrefabInternal: {fileID: 0}
  m_GameObject: {fileID: 0}
  m_Enabled: 1
  m_EditorHideFlags: 0
  m_Script: {fileID: 11500000, guid: f8378e5aa2ad24343901a0eb37792c6f, type: 3}
  m_Name: Card_17
  m_EditorClassIdentifier: 
  id: 
  text: "Charlie saca su arma r\xE1pidamente y te dispara. Encontrar\xE1n tu cuerpo
    y pagar\xE1 por ello. El actor que le contrat\xF3 conseguir\xE1 el papel protagonista
    en la pel\xEDcula, y a ti se te recordar\xE1 como un pobre desgraciado que fue
    enga\xF1ado por un criminal y termin\xF3 de la peor manera.  FIN DEL JUEGO "
  textOption1: "Volver al Men\xFA Principal"
  option1: {fileID: 0}
  textOption2: 
  option2: {fileID: 0}
  isNPCEvent: 0
  image: {fileID: 21300004, guid: a86a00fc0c7ce6d4fbca26396af0ce65, type: 3}
  clip: {fileID: 0}
  sfxClip: {fileID: 0}
  findObjectEvent: {fileID: 0}
  nameScene: MainMenu
  angelEvent: {fileID: 11400000, guid: ce55a7deeaeb15844b9243e19b15ea5a, type: 2}
