%YAML 1.1
%TAG !u! tag:unity3d.com,2011:
--- !u!114 &11400000
MonoBehaviour:
  m_ObjectHideFlags: 0
  m_PrefabParentObject: {fileID: 0}
  m_PrefabInternal: {fileID: 0}
  m_GameObject: {fileID: 0}
  m_Enabled: 1
  m_EditorHideFlags: 0
  m_Script: {fileID: 11500000, guid: b860bcdcb1252bb49a88186de0a28b6b, type: 3}
  m_Name: Card_39
  m_EditorClassIdentifier: 
  id: 
  text: "Mientras circulas, te das cuenta de lo bonito que es el lugar por el que
    est\xE1s pasando. Contemplas la posibilidad de pararte a contemplar las bonitas
    vistas \xBFqu\xE9 decides?"
  textOption1: "Te paras a mirar un rato y contin\xFAas"
  option1: {fileID: 11400000, guid: 36e5d497c77c8c74d953a8b7d4367c31, type: 2}
  textOption2: "Contin\xFAas tu camino"
  option2: {fileID: 11400000, guid: 36e5d497c77c8c74d953a8b7d4367c31, type: 2}
  isNPCEvent: 0
  image: {fileID: 21300006, guid: 34a594a64d7399c4fbb9c33e3136977e, type: 3}
  clip: {fileID: 8300000, guid: 9f234e9aab49bbb44881207cb7ddfef1, type: 3}
  sfxClip: {fileID: 0}
  findObjectEvent: {fileID: 0}
  distance: 0.36
  activeImage: X_9
