%YAML 1.1
%TAG !u! tag:unity3d.com,2011:
--- !u!114 &11400000
MonoBehaviour:
  m_ObjectHideFlags: 0
  m_PrefabParentObject: {fileID: 0}
  m_PrefabInternal: {fileID: 0}
  m_GameObject: {fileID: 0}
  m_Enabled: 1
  m_EditorHideFlags: 0
  m_Script: {fileID: 11500000, guid: 1ece2c4668e9e7d429c029137bd87b60, type: 3}
  m_Name: Card_29
  m_EditorClassIdentifier: 
  id: 
  text: "\xA1Hola amable desconocido! Soy Mig, y...ver\xE1s...tengo un gran problema.
    Tengo que reparar el tejado de mi casa, pero tuve un accidente...y me romp\xED
    ocho dedos. S\xE9 que va a llevar un buen rato pero\u2026\xBFpodr\xEDas ayudarme?
    Por favor\u2026"
  textOption1: Decides ayudar a Mig
  option1: {fileID: 11400000, guid: f7a5a20b88a17c349914024d63cb3197, type: 2}
  textOption2: Te disculpas y sigues tu camino
  option2: {fileID: 11400000, guid: 56cc84c9570173a4ea1b93c0ce06caa7, type: 2}
  isNPCEvent: 1
  image: {fileID: 21300006, guid: 761969be3281d944e95465286904ea6b, type: 3}
  clip: {fileID: 0}
  sfxClip: {fileID: 8300000, guid: 70c78651914b2574b96ad090a947eaaf, type: 3}
  findObjectEvent: {fileID: 0}
