%YAML 1.1
%TAG !u! tag:unity3d.com,2011:
--- !u!114 &11400000
MonoBehaviour:
  m_ObjectHideFlags: 0
  m_PrefabParentObject: {fileID: 0}
  m_PrefabInternal: {fileID: 0}
  m_GameObject: {fileID: 0}
  m_Enabled: 1
  m_EditorHideFlags: 0
  m_Script: {fileID: 11500000, guid: 1ece2c4668e9e7d429c029137bd87b60, type: 3}
  m_Name: Card_36
  m_EditorClassIdentifier: 
  id: 
  text: "Vaya...parece que has...muerto. Pero me ayudaste cuando lo necesitaba...y
    ahora te devuelvo el favor. Me presento como es debido...soy Mig, Mig el Angel.
    Te dar\xE9 una \xFAltima oportunidad para responder las preguntas que te hicieron\u2026"
  textOption1: Aceptar la ayuda de Mig
  option1: {fileID: 11400000, guid: 90f76c2869f41fb44bc417949367fa54, type: 2}
  textOption2: Morir
  option2: {fileID: 11400000, guid: 73e9f1c3fedfaaa468ebbe985827d94e, type: 2}
  isNPCEvent: 1
  image: {fileID: 21300008, guid: 761969be3281d944e95465286904ea6b, type: 3}
  clip: {fileID: 0}
  sfxClip: {fileID: 8300000, guid: c49e1e37db633894a9292da985d5689c, type: 3}
  findObjectEvent: {fileID: 0}
