%YAML 1.1
%TAG !u! tag:unity3d.com,2011:
--- !u!114 &11400000
MonoBehaviour:
  m_ObjectHideFlags: 0
  m_PrefabParentObject: {fileID: 0}
  m_PrefabInternal: {fileID: 0}
  m_GameObject: {fileID: 0}
  m_Enabled: 1
  m_EditorHideFlags: 0
  m_Script: {fileID: 11500000, guid: dbba9fa465c56e840a7a8e8ea69c22b4, type: 3}
  m_Name: MJ_A_win
  m_EditorClassIdentifier: 
  id: 
  text: "Hab\xE9is logrado escapar...y ahora definitivamente est\xE1is juntos en esto"
  textOption1: Continuar
  option1: {fileID: 11400000, guid: e400c620aa6bd8642aded707520d9ce8, type: 2}
  textOption2: 
  option2: {fileID: 0}
  isNPCEvent: 0
  image: {fileID: 21300008, guid: 3a5899915acf5e947a605a58f3df9f19, type: 3}
  clip: {fileID: 8300000, guid: 55e66b570b86a754dbd92f61f8d3a9af, type: 3}
  sfxClip: {fileID: 0}
  findObjectEvent: {fileID: 0}
