%YAML 1.1
%TAG !u! tag:unity3d.com,2011:
--- !u!114 &11400000
MonoBehaviour:
  m_ObjectHideFlags: 0
  m_PrefabParentObject: {fileID: 0}
  m_PrefabInternal: {fileID: 0}
  m_GameObject: {fileID: 0}
  m_Enabled: 1
  m_EditorHideFlags: 0
  m_Script: {fileID: 11500000, guid: 14f6c7f60b2cf274a8b33acb8410ba66, type: 3}
  m_Name: MJ_D
  m_EditorClassIdentifier: 
  id: 
  text: 
  textOption1: 
  option1: {fileID: 11400000, guid: 9008905556b87b442bcb78b15dd98f55, type: 2}
  textOption2: 
  option2: {fileID: 11400000, guid: 573d69a2ce97a834db00db42fb9d6318, type: 2}
  isNPCEvent: 0
  image: {fileID: 0}
  clip: {fileID: 0}
  minigameScene: Minigame_clicker_birra
