%YAML 1.1
%TAG !u! tag:unity3d.com,2011:
--- !u!114 &11400000
MonoBehaviour:
  m_ObjectHideFlags: 0
  m_PrefabParentObject: {fileID: 0}
  m_PrefabInternal: {fileID: 0}
  m_GameObject: {fileID: 0}
  m_Enabled: 1
  m_EditorHideFlags: 0
  m_Script: {fileID: 11500000, guid: dbba9fa465c56e840a7a8e8ea69c22b4, type: 3}
  m_Name: MJ_E_win
  m_EditorClassIdentifier: 
  id: 
  text: Llegas a un descampado donde el OVNI aterriza. La puerta se abre lentamente.
  textOption1: Continuar
  option1: {fileID: 11400000, guid: 7d5e8ea14258e7347804c849e2cbc37b, type: 2}
  textOption2: 
  option2: {fileID: 0}
  isNPCEvent: 0
  image: {fileID: 21300000, guid: ff47a26b6bbe49443b9dfa94a18f23a7, type: 3}
  clip: {fileID: 8300000, guid: d1712af55be87bb4b83fd4b083e6e11e, type: 3}
  sfxClip: {fileID: 0}
  findObjectEvent: {fileID: 0}
