%YAML 1.1
%TAG !u! tag:unity3d.com,2011:
--- !u!114 &11400000
MonoBehaviour:
  m_ObjectHideFlags: 0
  m_PrefabParentObject: {fileID: 0}
  m_PrefabInternal: {fileID: 0}
  m_GameObject: {fileID: 0}
  m_Enabled: 1
  m_EditorHideFlags: 0
  m_Script: {fileID: 11500000, guid: dbba9fa465c56e840a7a8e8ea69c22b4, type: 3}
  m_Name: Card_77
  m_EditorClassIdentifier: 
  id: 
  text: "Abajo hay un hombre de aspecto extra\xF1o con un cad\xE1ver cogido a modo
    de marioneta. "
  textOption1: Bajas las escaleras
  option1: {fileID: 11400000, guid: ad198ca2373a83d469c1072c488e95b4, type: 2}
  textOption2: "Intentas salir de ah\xED "
  option2: {fileID: 11400000, guid: f1160f40063925645ad5bd93432b1ade, type: 2}
  isNPCEvent: 0
  image: {fileID: 21300012, guid: 91b80a89f8a29d840ae5147f8c0bfa2c, type: 3}
  clip: {fileID: 0}
  sfxClip: {fileID: 0}
  findObjectEvent: {fileID: 0}
