%YAML 1.1
%TAG !u! tag:unity3d.com,2011:
--- !u!114 &11400000
MonoBehaviour:
  m_ObjectHideFlags: 0
  m_PrefabParentObject: {fileID: 0}
  m_PrefabInternal: {fileID: 0}
  m_GameObject: {fileID: 0}
  m_Enabled: 1
  m_EditorHideFlags: 0
  m_Script: {fileID: 11500000, guid: f8378e5aa2ad24343901a0eb37792c6f, type: 3}
  m_Name: Card_85
  m_EditorClassIdentifier: 
  id: 
  text: "El hombre se acerca a ti inexpresivo. Te atrapa, te acuchilla, te descuartiza
    y te cocina. Ya sabes lo que hab\xEDa de postre... FIN DEL JUEGO"
  textOption1: "Volver al Men\xFA Principal"
  option1: {fileID: 0}
  textOption2: 
  option2: {fileID: 0}
  isNPCEvent: 0
  image: {fileID: 21300008, guid: 137980b10e9039b4d9982645ef1d34d3, type: 3}
  clip: {fileID: 0}
  sfxClip: {fileID: 0}
  findObjectEvent: {fileID: 0}
  nameScene: MainMenu
  angelEvent: {fileID: 0}
