%YAML 1.1
%TAG !u! tag:unity3d.com,2011:
--- !u!114 &11400000
MonoBehaviour:
  m_ObjectHideFlags: 0
  m_PrefabParentObject: {fileID: 0}
  m_PrefabInternal: {fileID: 0}
  m_GameObject: {fileID: 0}
  m_Enabled: 1
  m_EditorHideFlags: 0
  m_Script: {fileID: 11500000, guid: dbba9fa465c56e840a7a8e8ea69c22b4, type: 3}
  m_Name: Card_80
  m_EditorClassIdentifier: 
  id: 
  text: "\xA1Espl\xE9ndido! \xA1Ponte c\xF3modo mientras cocinamos! "
  textOption1: Te sientas
  option1: {fileID: 11400000, guid: 280d4870f4434734cbf69a363112081f, type: 2}
  textOption2: Te quedas de pie
  option2: {fileID: 11400000, guid: 280d4870f4434734cbf69a363112081f, type: 2}
  isNPCEvent: 0
  image: {fileID: 21300014, guid: 91b80a89f8a29d840ae5147f8c0bfa2c, type: 3}
  clip: {fileID: 0}
  sfxClip: {fileID: 0}
  findObjectEvent: {fileID: 0}
