%YAML 1.1
%TAG !u! tag:unity3d.com,2011:
--- !u!114 &11400000
MonoBehaviour:
  m_ObjectHideFlags: 0
  m_PrefabParentObject: {fileID: 0}
  m_PrefabInternal: {fileID: 0}
  m_GameObject: {fileID: 0}
  m_Enabled: 1
  m_EditorHideFlags: 0
  m_Script: {fileID: 11500000, guid: dbba9fa465c56e840a7a8e8ea69c22b4, type: 3}
  m_Name: Card_78
  m_EditorClassIdentifier: 
  id: 
  text: "\xA1Hola, amiguito! \xA1Qu\xE9 alegr\xEDa nos da no estar solos esta noche!
    \xBFTe apetece cenar con nosotros? \xA1Hoy vamos a hacer muslitos!"
  textOption1: 'Aceptas la propuesta '
  option1: {fileID: 11400000, guid: d703158e778014b42b2ef94f1fffc81c, type: 2}
  textOption2: Rechazas la propuesta
  option2: {fileID: 11400000, guid: 0c9963dc716302c4f8d047124edaaa7e, type: 2}
  isNPCEvent: 1
  image: {fileID: 21300038, guid: 761969be3281d944e95465286904ea6b, type: 3}
  clip: {fileID: 0}
  sfxClip: {fileID: 0}
  findObjectEvent: {fileID: 0}
