%YAML 1.1
%TAG !u! tag:unity3d.com,2011:
--- !u!114 &11400000
MonoBehaviour:
  m_ObjectHideFlags: 0
  m_PrefabParentObject: {fileID: 0}
  m_PrefabInternal: {fileID: 0}
  m_GameObject: {fileID: 0}
  m_Enabled: 1
  m_EditorHideFlags: 0
  m_Script: {fileID: 11500000, guid: dbba9fa465c56e840a7a8e8ea69c22b4, type: 3}
  m_Name: Card_86
  m_EditorClassIdentifier: 
  id: 
  text: "Vaya, vaya...en fin, un placer haber compartido esta bonita velada contigo,
    amiguito. \xA1Que te vaya muy bien! "
  textOption1: Sales de la casa despacio
  option1: {fileID: 11400000, guid: 203e589071be8254698f4e7d3f75c125, type: 2}
  textOption2: Sales de la casa a toda prisa
  option2: {fileID: 11400000, guid: 203e589071be8254698f4e7d3f75c125, type: 2}
  isNPCEvent: 0
  image: {fileID: 21300016, guid: 91b80a89f8a29d840ae5147f8c0bfa2c, type: 3}
  clip: {fileID: 0}
  sfxClip: {fileID: 0}
  findObjectEvent: {fileID: 0}
